…
Uma vez que baixamos o arquivo de dados, vamos importá-lo para o R.

library(readr)

gbd_copd <- read_csv(file = here::here("data",
                                "IHME-GBD_2019_DATA-a45abb03-1.csv"))

Aqui utilizamos a função read_csv do pacote readr. Além disso, utilizamos a função here do pacote de mesmo nome. Se você ainda não conhece a função here veja este post sobre fluxo de trabalho orientado a projetos em R.

Veja que os dados estão no formato “longo”, pois os dados de YLLs, YLDs, DALYs, assim como sexo masculino, feminino e ambos os sexos encontra-se “empilhados”.

gbd_copd

## # A tibble: 201 × 10
##    measure           locat…¹ sex   age   cause metric  year    val  upper  lower
##    <chr>             <chr>   <chr> <chr> <chr> <chr>  <dbl>  <dbl>  <dbl>  <dbl>
##  1 YLDs (Years Live… Global  Male  0-6 … Chro… Number  2019     0      0      0 
##  2 YLDs (Years Live… Global  Fema… 0-6 … Chro… Number  2019     0      0      0 
##  3 YLDs (Years Live… Global  Both  0-6 … Chro… Number  2019     0      0      0 
##  4 YLDs (Years Live… Global  Male  7-27… Chro… Number  2019     0      0      0 
##  5 YLDs (Years Live… Global  Fema… 7-27… Chro… Number  2019     0      0      0 
##  6 YLDs (Years Live… Global  Both  7-27… Chro… Number  2019     0      0      0 
##  7 YLDs (Years Live… Global  Male  28-3… Chro… Number  2019   597.   756.   414.
##  8 YLDs (Years Live… Global  Fema… 28-3… Chro… Number  2019   680.   854.   484.
##  9 YLDs (Years Live… Global  Both  28-3… Chro… Number  2019  1277.  1591.   893.
## 10 YLDs (Years Live… Global  Male  1-4 … Chro… Number  2019 14636. 18507. 10542.
## # … with 191 more rows, and abbreviated variable name ¹​location
…
