…
Carregando os dados

Uma vez que baixamos os dados, vamos carregá-los para o R.

library(readr)

gbd_copd <- read_csv(file = here::here("data",
                                "IHME-GBD_2019_DATA-4fea7ca1-1.csv"))

De acordo com a configuração da nossa consulta (no GBD Results Tool) temos informação para valores de DALYs, em ambos os sexos e para cada ano de 1990 até 2019.

gbd_copd

## # A tibble: 1,380 × 10
##    measure           locat…¹ sex   age   cause metric  year    val  upper  lower
##    <chr>             <chr>   <chr> <chr> <chr> <chr>  <dbl>  <dbl>  <dbl>  <dbl>
##  1 DALYs (Disabilit… Global  Male  0-6 … Chro… Number  1990 0      0      0     
##  2 DALYs (Disabilit… Global  Fema… 0-6 … Chro… Number  1990 0      0      0     
##  3 DALYs (Disabilit… Global  Male  7-27… Chro… Number  1990 0      0      0     
##  4 DALYs (Disabilit… Global  Fema… 7-27… Chro… Number  1990 0      0      0     
##  5 DALYs (Disabilit… Global  Male  28-3… Chro… Number  1990 5.99e2 7.42e2 4.32e2
##  6 DALYs (Disabilit… Global  Fema… 28-3… Chro… Number  1990 6.80e2 8.43e2 5.00e2
##  7 DALYs (Disabilit… Global  Male  1-4 … Chro… Number  1990 1.66e5 3.77e5 1.17e5
##  8 DALYs (Disabilit… Global  Fema… 1-4 … Chro… Number  1990 2.01e5 3.51e5 6.55e4
##  9 DALYs (Disabilit… Global  Male  5-9 … Chro… Number  1990 8.36e4 1.00e5 7.04e4
## 10 DALYs (Disabilit… Global  Fema… 5-9 … Chro… Number  1990 8.30e4 1.03e5 6.13e4
## # … with 1,370 more rows, and abbreviated variable name ¹​location
…
